module gitlab.com/commonground/haven/haven/haven/cli

go 1.19

replace k8s.io/api => k8s.io/api v0.25.3

replace k8s.io/apiextensions-apiserver => k8s.io/apiextensions-apiserver v0.25.3

replace k8s.io/apimachinery => k8s.io/apimachinery v0.25.3

replace k8s.io/apiserver => k8s.io/apiserver v0.25.3

replace k8s.io/cli-runtime => k8s.io/cli-runtime v0.25.3

replace k8s.io/client-go => k8s.io/client-go v0.25.3

replace k8s.io/cloud-provider => k8s.io/cloud-provider v1.25.3

replace k8s.io/cluster-bootstrap => k8s.io/cluster-bootstrap v1.25.3

replace k8s.io/code-generator => k8s.io/code-generator v0.25.3

replace k8s.io/component-base => k8s.io/component-base v0.25.3

replace k8s.io/component-helpers => k8s.io/component-helpers v0.25.3

replace k8s.io/controller-manager => k8s.io/controller-manager v1.25.3

replace k8s.io/cri-api => k8s.io/cri-api v0.25.3

replace k8s.io/csi-translation-lib => k8s.io/csi-translation-lib v1.25.3

replace k8s.io/kube-aggregator => k8s.io/kube-aggregator v1.25.3

replace k8s.io/kube-controller-manager => k8s.io/kube-controller-manager v1.25.3

replace k8s.io/kube-proxy => k8s.io/kube-proxy v1.25.3

replace k8s.io/kube-scheduler => k8s.io/kube-scheduler v1.25.3

replace k8s.io/kubectl => k8s.io/kubectl v0.25.3

replace k8s.io/kubelet => k8s.io/kubelet v1.25.3

replace k8s.io/legacy-cloud-providers => k8s.io/legacy-cloud-providers v1.25.3

replace k8s.io/metrics => k8s.io/metrics v0.25.3

replace k8s.io/mount-utils => k8s.io/mount-utils v0.25.3

replace k8s.io/sample-apiserver => k8s.io/sample-apiserver v1.25.3

replace k8s.io/sample-cli-plugin => k8s.io/sample-cli-plugin v1.25.3

replace k8s.io/sample-controller => k8s.io/sample-controller v1.25.3

require (
	github.com/AlecAivazis/survey/v2 v2.3.1
	github.com/Masterminds/semver/v3 v3.1.1
	github.com/bufbuild/connect-go v1.0.0
	github.com/gookit/color v1.4.2
	github.com/gorilla/mux v1.8.0
	github.com/jawher/mow.cli v1.2.0
	github.com/lunixbochs/vtclean v1.0.0
	github.com/olekukonko/tablewriter v0.0.5
	github.com/pytimer/k8sutil v0.0.0-20220203142443-87b1dfb13ebc
	github.com/stretchr/testify v1.8.0
	golang.org/x/crypto v0.0.0-20220525230936-793ad666bf5e
	google.golang.org/protobuf v1.28.1
	helm.sh/helm/v3 v3.10.1
	k8s.io/api v0.25.3
	k8s.io/apiextensions-apiserver v0.25.3
	k8s.io/apimachinery v0.25.3
	k8s.io/cli-runtime v0.25.3
	k8s.io/client-go v0.25.3
	k8s.io/kubectl v0.25.3
	k8s.io/kubernetes v1.25.3
	k8s.io/utils v0.0.0-20220728103510-ee6ede2d64ed
	sigs.k8s.io/yaml v1.3.0
)

require (
	cloud.google.com/go v0.99.0 // indirect
	github.com/Azure/go-ansiterm v0.0.0-20210617225240-d185dfc1b5a1 // indirect
	github.com/Azure/go-autorest v14.2.0+incompatible // indirect
	github.com/Azure/go-autorest/autorest v0.11.27 // indirect
	github.com/Azure/go-autorest/autorest/adal v0.9.20 // indirect
	github.com/Azure/go-autorest/autorest/date v0.3.0 // indirect
	github.com/Azure/go-autorest/logger v0.2.1 // indirect
	github.com/Azure/go-autorest/tracing v0.6.0 // indirect
	github.com/BurntSushi/toml v1.1.0 // indirect
	github.com/MakeNowJust/heredoc v1.0.0 // indirect
	github.com/Masterminds/goutils v1.1.1 // indirect
	github.com/Masterminds/sprig/v3 v3.2.2 // indirect
	github.com/Masterminds/squirrel v1.5.3 // indirect
	github.com/PuerkitoBio/purell v1.1.1 // indirect
	github.com/PuerkitoBio/urlesc v0.0.0-20170810143723-de5bf2ad4578 // indirect
	github.com/asaskevich/govalidator v0.0.0-20200428143746-21a406dcc535 // indirect
	github.com/beorn7/perks v1.0.1 // indirect
	github.com/cespare/xxhash/v2 v2.1.2 // indirect
	github.com/chai2010/gettext-go v1.0.2 // indirect
	github.com/containerd/containerd v1.6.6 // indirect
	github.com/cyphar/filepath-securejoin v0.2.3 // indirect
	github.com/davecgh/go-spew v1.1.1 // indirect
	github.com/docker/cli v20.10.17+incompatible // indirect
	github.com/docker/distribution v2.8.1+incompatible // indirect
	github.com/docker/docker v20.10.17+incompatible // indirect
	github.com/docker/docker-credential-helpers v0.6.4 // indirect
	github.com/docker/go-connections v0.4.0 // indirect
	github.com/docker/go-metrics v0.0.1 // indirect
	github.com/docker/go-units v0.4.0 // indirect
	github.com/emicklei/go-restful/v3 v3.8.0 // indirect
	github.com/evanphx/json-patch v5.6.0+incompatible // indirect
	github.com/exponent-io/jsonpath v0.0.0-20151013193312-d6023ce2651d // indirect
	github.com/fatih/color v1.13.0 // indirect
	github.com/go-errors/errors v1.0.1 // indirect
	github.com/go-gorp/gorp/v3 v3.0.2 // indirect
	github.com/go-logr/logr v1.2.3 // indirect
	github.com/go-openapi/jsonpointer v0.19.5 // indirect
	github.com/go-openapi/jsonreference v0.19.5 // indirect
	github.com/go-openapi/swag v0.19.14 // indirect
	github.com/gobwas/glob v0.2.3 // indirect
	github.com/gogo/protobuf v1.3.2 // indirect
	github.com/golang-jwt/jwt/v4 v4.2.0 // indirect
	github.com/golang/protobuf v1.5.2 // indirect
	github.com/google/btree v1.0.1 // indirect
	github.com/google/gnostic v0.5.7-v3refs // indirect
	github.com/google/go-cmp v0.5.9 // indirect
	github.com/google/gofuzz v1.2.0 // indirect
	github.com/google/shlex v0.0.0-20191202100458-e7afc7fbc510 // indirect
	github.com/google/uuid v1.2.0 // indirect
	github.com/gosuri/uitable v0.0.4 // indirect
	github.com/gregjones/httpcache v0.0.0-20180305231024-9cad4c3443a7 // indirect
	github.com/huandu/xstrings v1.3.2 // indirect
	github.com/imdario/mergo v0.3.12 // indirect
	github.com/inconshreveable/mousetrap v1.0.0 // indirect
	github.com/jmoiron/sqlx v1.3.5 // indirect
	github.com/josharian/intern v1.0.0 // indirect
	github.com/json-iterator/go v1.1.12 // indirect
	github.com/kballard/go-shellquote v0.0.0-20180428030007-95032a82bc51 // indirect
	github.com/klauspost/compress v1.13.6 // indirect
	github.com/lann/builder v0.0.0-20180802200727-47ae307949d0 // indirect
	github.com/lann/ps v0.0.0-20150810152359-62de8c46ede0 // indirect
	github.com/lib/pq v1.10.6 // indirect
	github.com/liggitt/tabwriter v0.0.0-20181228230101-89fcab3d43de // indirect
	github.com/mailru/easyjson v0.7.6 // indirect
	github.com/mattn/go-colorable v0.1.12 // indirect
	github.com/mattn/go-isatty v0.0.14 // indirect
	github.com/mattn/go-runewidth v0.0.9 // indirect
	github.com/matttproud/golang_protobuf_extensions v1.0.2-0.20181231171920-c182affec369 // indirect
	github.com/mgutz/ansi v0.0.0-20170206155736-9520e82c474b // indirect
	github.com/mitchellh/copystructure v1.2.0 // indirect
	github.com/mitchellh/go-wordwrap v1.0.0 // indirect
	github.com/mitchellh/reflectwalk v1.0.2 // indirect
	github.com/moby/locker v1.0.1 // indirect
	github.com/moby/spdystream v0.2.0 // indirect
	github.com/moby/term v0.0.0-20210619224110-3f7ff695adc6 // indirect
	github.com/modern-go/concurrent v0.0.0-20180306012644-bacd9c7ef1dd // indirect
	github.com/modern-go/reflect2 v1.0.2 // indirect
	github.com/monochromegane/go-gitignore v0.0.0-20200626010858-205db1a8cc00 // indirect
	github.com/morikuni/aec v1.0.0 // indirect
	github.com/munnerz/goautoneg v0.0.0-20191010083416-a7dc8b61c822 // indirect
	github.com/mxk/go-flowrate v0.0.0-20140419014527-cca7078d478f // indirect
	github.com/opencontainers/go-digest v1.0.0 // indirect
	github.com/opencontainers/image-spec v1.0.3-0.20211202183452-c5a74bcca799 // indirect
	github.com/peterbourgon/diskv v2.0.1+incompatible // indirect
	github.com/pkg/errors v0.9.1 // indirect
	github.com/pmezard/go-difflib v1.0.0 // indirect
	github.com/prometheus/client_golang v1.12.1 // indirect
	github.com/prometheus/client_model v0.2.0 // indirect
	github.com/prometheus/common v0.32.1 // indirect
	github.com/prometheus/procfs v0.7.3 // indirect
	github.com/rubenv/sql-migrate v1.1.2 // indirect
	github.com/russross/blackfriday v1.5.2 // indirect
	github.com/shopspring/decimal v1.2.0 // indirect
	github.com/sirupsen/logrus v1.8.1 // indirect
	github.com/spf13/cast v1.4.1 // indirect
	github.com/spf13/cobra v1.5.0 // indirect
	github.com/spf13/pflag v1.0.5 // indirect
	github.com/xeipuuv/gojsonpointer v0.0.0-20180127040702-4e3ac2762d5f // indirect
	github.com/xeipuuv/gojsonreference v0.0.0-20180127040603-bd5ef7bd5415 // indirect
	github.com/xeipuuv/gojsonschema v1.2.0 // indirect
	github.com/xlab/treeprint v1.1.0 // indirect
	github.com/xo/terminfo v0.0.0-20210125001918-ca9a967f8778 // indirect
	go.etcd.io/etcd/api/v3 v3.5.4 // indirect
	go.starlark.net v0.0.0-20200306205701-8dd3e2ee1dd5 // indirect
	golang.org/x/net v0.0.0-20220722155237-a158d28d115b // indirect
	golang.org/x/oauth2 v0.0.0-20211104180415-d3ed0bb246c8 // indirect
	golang.org/x/sync v0.0.0-20220722155255-886fb9371eb4 // indirect
	golang.org/x/sys v0.0.0-20220722155257-8c9f86f7a55f // indirect
	golang.org/x/term v0.0.0-20210927222741-03fcf44c2211 // indirect
	golang.org/x/text v0.3.7 // indirect
	golang.org/x/time v0.0.0-20220210224613-90d013bbcef8 // indirect
	google.golang.org/appengine v1.6.7 // indirect
	google.golang.org/genproto v0.0.0-20220502173005-c8bf987b8c21 // indirect
	google.golang.org/grpc v1.47.0 // indirect
	gopkg.in/inf.v0 v0.9.1 // indirect
	gopkg.in/yaml.v2 v2.4.0 // indirect
	gopkg.in/yaml.v3 v3.0.1 // indirect
	k8s.io/apiserver v0.25.3 // indirect
	k8s.io/component-base v0.25.3 // indirect
	k8s.io/klog/v2 v2.70.1 // indirect
	k8s.io/kube-openapi v0.0.0-20220803162953-67bda5d908f1 // indirect
	oras.land/oras-go v1.2.0 // indirect
	sigs.k8s.io/json v0.0.0-20220713155537-f223a00ba0e2 // indirect
	sigs.k8s.io/kustomize/api v0.12.1 // indirect
	sigs.k8s.io/kustomize/kyaml v0.13.9 // indirect
	sigs.k8s.io/structured-merge-diff/v4 v4.2.3 // indirect
)
